…
chords %>%
  unnest(Songsterr_chords) %>%
  summarize(glue::glue_collapse(Songsterr_chords, sep = ','), .by = 'track_name')
```

    ## # A tibble: 120 × 2
    ##    track_name                    `glue::glue_collapse(Songsterr_chords, sep = ",")`                       
    ##    <chr>                         <glue>                                                                   
    ##  1 Everything In Its Right Place <NA>                                                                     
    ##  2 Kid A                         C,C♯maj13,Cm,D♯,F,C,C♯maj13,Cm,D♯,F,C,C♯maj13,Cm,D♯,F,C,C♯maj13,Cm,D♯,F,…
    ##  3 The National Anthem           C♯,D,D♯,E,F,F♯,G,G♯,A,A♯,C,C♯,D,D♯,E,F,F♯,G,G♯,A,A♯,C,C♯,D,D♯,E,F,F♯,G,G…
    ##  4 How to Disappear Completely   <NA>                                                                     
    ##  5 Treefingers                   <NA>                                                                     
    ##  6 Optimistic                    Am/D,Bm,D,Dadd9,A♯6,D,C/D,Am/D,Bm,D,Dadd9,A♯6,D,C/D,A♯6,D,C/D,Dm,C/D,Em/…
    ##  7 In Limbo                      <NA>                                                                     
    ##  8 Idioteque                     Cadd2,B,Em,Gm,D♯,C,Cadd2,B,Em,Gm,D♯,C,Cadd2,B,Em,Gm,D♯,C,Cadd2,B,Em,Gm,D…
    ##  9 Morning Bell                  Am,A7M,G,D,Em,G♯m,Am,A7M,Am,A7M,Am,A7M,G,D,G,D,Am,A7M,Am,A7M,Am,A7M,G,D,…
    ## 10 Motion Picture Soundtrack     C♯,E,G,Csus2,Bmadd9,Csus2,G,Csus2,Bmadd9,Csus2,Em,C,G,G,Csus2,Bmadd9,Csu…
    ## # … with 110 more rows
…
